\relax 
\ifx\hyper@anchor\@undefined
\global \let \oldcontentsline\contentsline
\gdef \contentsline#1#2#3#4{\oldcontentsline{#1}{#2}{#3}}
\global \let \oldnewlabel\newlabel
\gdef \newlabel#1#2{\newlabelxx{#1}#2}
\gdef \newlabelxx#1#2#3#4#5#6{\oldnewlabel{#1}{{#2}{#3}}}
\AtEndDocument{\let \contentsline\oldcontentsline
\let \newlabel\oldnewlabel}
\else
\global \let \hyper@last\relax 
\fi

\@writefile{toc}{\beamer@endinputifotherversion {3.10pt}}
\@writefile{nav}{\beamer@endinputifotherversion {3.10pt}}
\select@language{english}
\@writefile{toc}{\select@language{english}}
\@writefile{lof}{\select@language{english}}
\@writefile{lot}{\select@language{english}}
\@writefile{nav}{\headcommand {\slideentry {0}{0}{1}{1/1}{}{0}}}
\@writefile{nav}{\headcommand {\beamer@framepages {1}{1}}}
\@writefile{nav}{\headcommand {\slideentry {0}{0}{2}{2/2}{}{0}}}
\@writefile{nav}{\headcommand {\beamer@framepages {2}{2}}}
\@writefile{toc}{\beamer@sectionintoc {1}{Introduction to Co-Clustering}{3}{0}{1}}
\@writefile{nav}{\headcommand {\sectionentry {1}{Introduction to Co-Clustering}{3}{Introduction to Co-Clustering}{0}}}
\@writefile{nav}{\headcommand {\beamer@sectionpages {1}{2}}}
\@writefile{nav}{\headcommand {\beamer@subsectionpages {1}{2}}}
\newlabel{fig:samplecoclust}{{1}{3}{Binary data set (a),data reorganized by a partition on $I$ (b), by partitions on $I$ and $J$ simultaneously (c) and summary binary data (d)}{}{}}
\@writefile{snm}{\beamer@slide {fig:samplecoclust}{3}}
\@writefile{nav}{\headcommand {\slideentry {1}{0}{3}{3/4}{}{0}}}
\@writefile{nav}{\headcommand {\beamer@framepages {3}{4}}}
\@writefile{toc}{\beamer@sectionintoc {2}{Latent Block Models for Co-Clustering}{5}{0}{2}}
\@writefile{nav}{\headcommand {\sectionentry {2}{Latent Block Models for Co-Clustering}{5}{Latent Block Models for Co-Clustering}{0}}}
\@writefile{nav}{\headcommand {\beamer@sectionpages {3}{4}}}
\@writefile{nav}{\headcommand {\beamer@subsectionpages {3}{4}}}
\newlabel{latent_block_model:eq:classical_mixture}{{2}{5}{Latent Block Models for Co-Clustering\relax }{}{}}
\@writefile{snm}{\beamer@slide {latent_block_model:eq:classical_mixture}{5}}
\@writefile{nav}{\headcommand {\slideentry {2}{0}{4}{5/6}{}{0}}}
\@writefile{nav}{\headcommand {\beamer@framepages {5}{6}}}
\newlabel{latent_block_model:eq:classical_mixture_1}{{3}{7}{Latent Block Models for Co-Clustering\relax }{}{}}
\@writefile{snm}{\beamer@slide {latent_block_model:eq:classical_mixture_1}{7}}
\@writefile{nav}{\headcommand {\slideentry {2}{0}{5}{7/7}{}{0}}}
\@writefile{nav}{\headcommand {\beamer@framepages {7}{7}}}
\@writefile{snm}{\beamer@slide {latent_block_model:eq:latent_block_model}{8}}
\newlabel{latent_block_model:eq:latent_block_model}{{4}{8}{Latent Block Models for Co-Clustering\relax }{}{}}
\@writefile{nav}{\headcommand {\slideentry {2}{0}{6}{8/9}{}{0}}}
\@writefile{nav}{\headcommand {\beamer@framepages {8}{9}}}
\@writefile{snm}{\beamer@slide {latent_block_model:eq:latent_block_model_1}{10}}
\newlabel{latent_block_model:eq:latent_block_model_1}{{5}{10}{Latent Block Models for Co-Clustering\relax }{}{}}
\@writefile{nav}{\headcommand {\slideentry {2}{0}{7}{10/11}{}{0}}}
\@writefile{nav}{\headcommand {\beamer@framepages {10}{11}}}
\@writefile{nav}{\headcommand {\slideentry {2}{0}{8}{12/13}{}{0}}}
\@writefile{nav}{\headcommand {\beamer@framepages {12}{13}}}
\@writefile{nav}{\headcommand {\slideentry {2}{0}{9}{14/14}{}{0}}}
\@writefile{nav}{\headcommand {\beamer@framepages {14}{14}}}
\@writefile{toc}{\beamer@sectionintoc {3}{CoClust Software: About, Usage and Examples}{15}{0}{3}}
\@writefile{nav}{\headcommand {\sectionentry {3}{CoClust Software: About, Usage and Examples}{15}{CoClust Software: About, Usage and Examples}{0}}}
\@writefile{nav}{\headcommand {\beamer@sectionpages {5}{14}}}
\@writefile{nav}{\headcommand {\beamer@subsectionpages {5}{14}}}
\@writefile{nav}{\headcommand {\slideentry {3}{0}{10}{15/16}{}{0}}}
\@writefile{nav}{\headcommand {\beamer@framepages {15}{16}}}
\@writefile{nav}{\headcommand {\slideentry {3}{0}{11}{17/18}{}{0}}}
\@writefile{nav}{\headcommand {\beamer@framepages {17}{18}}}
\newlabel{data1}{{12}{19}{CoClust Software: About, Usage and Examples\relax }{}{}}
\@writefile{snm}{\beamer@slide {data1}{19}}
\newlabel{cluster1}{{12}{19}{CoClust Software: About, Usage and Examples\relax }{}{}}
\@writefile{snm}{\beamer@slide {cluster1}{19}}
\newlabel{data2}{{12}{19}{CoClust Software: About, Usage and Examples\relax }{}{}}
\@writefile{snm}{\beamer@slide {data2}{19}}
\newlabel{cluster2}{{12}{19}{CoClust Software: About, Usage and Examples\relax }{}{}}
\@writefile{snm}{\beamer@slide {cluster2}{19}}
\newlabel{fig:datacluster}{{2}{19}{Simulated data-1(a), co-clusters of data-1(b), Simulated data-2(c), co-clusters on data-2(d)\relax }{}{}}
\@writefile{snm}{\beamer@slide {fig:datacluster}{19}}
\@writefile{nav}{\headcommand {\slideentry {3}{0}{12}{19/19}{}{0}}}
\@writefile{nav}{\headcommand {\beamer@framepages {19}{19}}}
\newlabel{tab:dispersiontable}{{1}{20}{Comparison of true and estimated centers and dispersions\relax }{}{}}
\@writefile{snm}{\beamer@slide {tab:dispersiontable}{20}}
\newlabel{tab:colproptable}{{2}{20}{Comparison of true and estimated column proportions\relax }{}{}}
\@writefile{snm}{\beamer@slide {tab:colproptable}{20}}
\newlabel{tab:rowproptable}{{3}{20}{Comparison of true and estimated row proportions\relax }{}{}}
\@writefile{snm}{\beamer@slide {tab:rowproptable}{20}}
\@writefile{nav}{\headcommand {\slideentry {3}{0}{13}{20/20}{}{0}}}
\@writefile{nav}{\headcommand {\beamer@framepages {20}{20}}}
\@writefile{nav}{\headcommand {\slideentry {3}{0}{14}{21/21}{}{0}}}
\@writefile{nav}{\headcommand {\beamer@framepages {21}{21}}}
\@writefile{nav}{\headcommand {\slideentry {3}{0}{15}{22/22}{}{0}}}
\@writefile{nav}{\headcommand {\beamer@framepages {22}{22}}}
\@writefile{nav}{\headcommand {\beamer@partpages {1}{22}}}
\@writefile{nav}{\headcommand {\beamer@subsectionpages {15}{22}}}
\@writefile{nav}{\headcommand {\beamer@sectionpages {15}{22}}}
\@writefile{nav}{\headcommand {\beamer@documentpages {22}}}
\@writefile{nav}{\headcommand {\def \inserttotalframenumber {15}}}
