\BOOKMARK [1][-]{section.1}{Introduction}{}
\BOOKMARK [1][-]{section.2}{Co-Clustering model for Binary data}{}
\BOOKMARK [2][-]{subsection.2.1}{Notations}{section.2}
\BOOKMARK [2][-]{subsection.2.2}{Definition}{section.2}
\BOOKMARK [2][-]{subsection.2.3}{Latent block Model}{section.2}
\BOOKMARK [1][-]{section.3}{CoClust software}{}
\BOOKMARK [2][-]{subsection.3.1}{Block EM Algorithm}{section.3}
\BOOKMARK [2][-]{subsection.3.2}{BCEM Algorithm}{section.3}
\BOOKMARK [1][-]{section.4}{Usage and Examples}{}
\BOOKMARK [1][-]{section.5}{Conclusion and Future works}{}
\BOOKMARK [1][-]{section.6}{Acknowledgement}{}
