\relax 
\ifx\hyper@anchor\@undefined
\global \let \oldcontentsline\contentsline
\gdef \contentsline#1#2#3#4{\oldcontentsline{#1}{#2}{#3}}
\global \let \oldnewlabel\newlabel
\gdef \newlabel#1#2{\newlabelxx{#1}#2}
\gdef \newlabelxx#1#2#3#4#5#6{\oldnewlabel{#1}{{#2}{#3}}}
\AtEndDocument{\let \contentsline\oldcontentsline
\let \newlabel\oldnewlabel}
\else
\global \let \hyper@last\relax 
\fi

\citation{Govaert2003}
\citation{govaert2008binary}
\citation{govaert2010contingency}
\citation{Govaert2003}
\@writefile{toc}{\contentsline {section}{\numberline {1}Introduction}{1}{section.1}}
\@writefile{lof}{\contentsline {figure}{\numberline {1}{\ignorespaces Binary data set (a), data reorganized by a partition on $I$ (b), by partitions on $I$ and $J$ simultaneously (c) and summary matrix (d).}}{2}{figure.1}}
\newlabel{fig:samplecoclust}{{1}{2}{Binary data set (a), data reorganized by a partition on $I$ (b), by partitions on $I$ and $J$ simultaneously (c) and summary matrix (d)}{figure.1}{}}
\@writefile{toc}{\contentsline {section}{\numberline {2}Package details}{2}{section.2}}
\newlabel{sec:usingblockcluster}{{2}{2}{Package details\relax }{section.2}{}}
\@writefile{toc}{\contentsline {subsection}{\numberline {2.1}cocluster function}{2}{subsection.2.1}}
\@writefile{lot}{\contentsline {table}{\numberline {1}{\ignorespaces Various models available in package {\bf  blockcluster}.}}{3}{table.1}}
\newlabel{tab:modeltypes}{{1}{3}{Various models available in package {\bf blockcluster}}{table.1}{}}
\@writefile{toc}{\contentsline {subsection}{\numberline {2.2}cocluststrategy function}{3}{subsection.2.2}}
\newlabel{sec:cocluststrategy}{{2.2}{3}{cocluststrategy function\relax }{subsection.2.2}{}}
\@writefile{toc}{\contentsline {subsubsection}{\numberline {2.2.1}Understanding various input parameters}{5}{subsubsection.2.2.1}}
\newlabel{sec:inputarguments}{{2.2.1}{5}{Understanding various input parameters\relax }{subsubsection.2.2.1}{}}
\@writefile{toc}{\contentsline {subsection}{\numberline {2.3}Example using simulated Binary dataset}{6}{subsection.2.3}}
\@writefile{lot}{\contentsline {table}{\numberline {2}{\ignorespaces Parameters for simulation of binary data.}}{6}{table.2}}
\newlabel{tab:binarytableparam}{{2}{6}{Parameters for simulation of binary data}{table.2}{}}
\@writefile{lof}{\contentsline {figure}{\numberline {2}{\ignorespaces Original and co-clustered binary data (a), and distributions for each block along with various mixture densities (b).}}{7}{figure.2}}
\newlabel{fig:binarydata}{{2}{7}{Original and co-clustered binary data (a), and distributions for each block along with various mixture densities (b)}{figure.2}{}}
\@writefile{toc}{\contentsline {section}{\numberline {3}Examples with real datasets}{7}{section.3}}
\newlabel{sec:applications}{{3}{7}{Examples with real datasets\relax }{section.3}{}}
\citation{Dhillon01}
\citation{Dhillon01}
\citation{Dhillon01}
\citation{Dhillon01}
\bibstyle{plain}
\bibdata{biblio.bib}
\@writefile{toc}{\contentsline {subsection}{\numberline {3.1}Image segmentation}{8}{subsection.3.1}}
\@writefile{lof}{\contentsline {figure}{\numberline {3}{\ignorespaces Original and co-clustered (segmented) image.}}{8}{figure.3}}
\newlabel{fig:coclustersnake}{{3}{8}{Original and co-clustered (segmented) image}{figure.3}{}}
\@writefile{toc}{\contentsline {subsection}{\numberline {3.2}Document clustering}{8}{subsection.3.2}}
\@writefile{toc}{\contentsline {section}{\numberline {4}Remarks}{8}{section.4}}
\bibcite{Dhillon01}{1}
\bibcite{govaert2008binary}{2}
\bibcite{govaert2010contingency}{3}
\bibcite{Govaert2003}{4}
\@writefile{lot}{\contentsline {table}{\numberline {3}{\ignorespaces Confusion Matrix: Results reported in \cite  {Dhillon01} (a), and Results using {\bf  blockcluster} (b). The difference in number of Cranfield documents is because we made use of the already available data extracted from the documents and there are two less documents data in the same.}}{9}{table.3}}
\newlabel{tab:confusionmatrix}{{3}{9}{Confusion Matrix: Results reported in \cite {Dhillon01} (a), and Results using {\bf blockcluster} (b). The difference in number of Cranfield documents is because we made use of the already available data extracted from the documents and there are two less documents data in the same}{table.3}{}}
\@writefile{lof}{\contentsline {figure}{\numberline {4}{\ignorespaces Original data matrix with words on rows and documents on columns (a), and checkerboard pattern in words by documents matrix obtained after performing co-clustering (b).}}{9}{figure.4}}
\newlabel{fig:coclusterdocument}{{4}{9}{Original data matrix with words on rows and documents on columns (a), and checkerboard pattern in words by documents matrix obtained after performing co-clustering (b)}{figure.4}{}}
