\BOOKMARK [1][-]{section.1}{Introduction}{}
\BOOKMARK [1][-]{section.2}{Package details}{}
\BOOKMARK [2][-]{subsection.2.1}{cocluster function}{section.2}
\BOOKMARK [2][-]{subsection.2.2}{cocluststrategy function}{section.2}
\BOOKMARK [3][-]{subsubsection.2.2.1}{Understanding various input parameters}{subsection.2.2}
\BOOKMARK [2][-]{subsection.2.3}{Example using simulated Binary dataset}{section.2}
\BOOKMARK [1][-]{section.3}{Examples with real datasets}{}
\BOOKMARK [2][-]{subsection.3.1}{Image segmentation}{section.3}
\BOOKMARK [2][-]{subsection.3.2}{Document clustering}{section.3}
\BOOKMARK [1][-]{section.4}{Remarks}{}
