\relax 
\@writefile{toc}{\contentsline {section}{\numberline {1}Formula for estimating the log-likelihood}{1}}
\@writefile{toc}{\contentsline {section}{\numberline {2}Formula implemented in the 4.2.3 version for categorical models}{1}}
